{
  "development": {
    "username": "eatoo-backend",
    "password": "password",
    "database": "eatoo-backend",
    "host": "127.0.0.1",
    "dialect": "mysql",
    "operatorsAliases": false
  },
  "production": {
    "host": "database",
    "username": "eatoo",
    "password": "7eBzC1jqsfnkQXk9/b572wU/HwEOwqQr1cN0FrijAmU",
    "database": "eatoo-prod",
    "dialect": "mysql",
    "operatorsAliases": false
  }
}
